tmfast fits topic models fast
…
theta_df = theta |>
    as_tibble(rownames = 'doc', 
              .name_repair = tmfast:::make_colnames) |>
    mutate(doc = as.integer(doc)) |>
    pivot_longer(starts_with('V'),
                 names_to = 'topic',
                 values_to = 'theta')
theta_df

# A tibble: 10,000 × 3
     doc topic      theta
   <int> <chr>      <dbl>
 1     1 V01   0.872     
 2     1 V02   0.0644    
 3     1 V03   0.0278    
 4     1 V04   0.00169   
 5     1 V05   0.00249   
 6     1 V06   0.00137   
 7     1 V07   0.00693   
 8     1 V08   0.000124  
 9     1 V09   0.00000643
10     1 V10   0.0235    
# … with 9,990 more rows
…
Next we generate the true word-topic distributions \(p(\phi = w | \theta = t)\), often designed as either \(\phi\) or \(\beta\). We use \(\phi\) for the true distribution and \(\beta\) for the fitted distribution. We sample these distributions from a symmetric Dirichlet distribution over the length of the vocabulary with \(\alpha = .01\). Tile and Zipfian (probability vs. rank on a log-log scale) plots confirm these distributions are working correctly.

## phi_j:  Word distribution for topic j
phi = rdirichlet(k, word_beta, k = vocab)

phi_df = phi |>
    t() |> 
    as_tibble(rownames = 'token', 
              .name_repair = tmfast:::make_colnames) |>
    pivot_longer(starts_with('V'),
                 names_to = 'topic',
                 values_to = 'phi')
phi_df

# A tibble: 10,000 × 3
   token topic      phi
   <chr> <chr>    <dbl>
 1 1     V01   2.28e- 4
 2 1     V02   2.51e-18
 3 1     V03   4.06e- 4
 4 1     V04   5.86e- 4
 5 1     V05   5.73e- 8
 6 1     V06   1.04e- 5
 7 1     V07   2.67e- 4
 8 1     V08   9.02e- 6
 9 1     V09   1.00e-25
10 1     V10   2.03e- 4
# … with 9,990 more rows
…
Using simulated data with true word-topic and topic-document distributions enables us to check the accuracy of both tmfast and stm models. Here we’ll develop a method proposed by Malaterre and Lareau (2022), comparing distributions using Hellinger distance. For discrete probability distributions \(p, q\) over the same space \(X\), the Hellinger distance is given by

\[ d(p,q) = \frac{1}{\sqrt{2}} \sqrt{\sum_{x \in X} (\sqrt{p(x)} - \sqrt{q(x)})^2} = \frac{1}{\sqrt{2}} \lVert \sqrt p - \sqrt q \rVert_2. \]

The last equation means that the Hellinger distance is the Euclidean (\(L^2\)-norm) distance between the square roots of the distributions. Some authors working with topic models sometimes compare distributions using the \(L^2\)-norm of the distributions themselves, without the square root. But this approach is flawed, since probability distributions can have different lengths in the \(L^2\) norm. (For example, the distribution \((1, 0)\) has \(L^2\) length 1, while \((\frac{1}{2}, \frac{1}{2} )\) has \(L^2\) length approximately 1.19.) Cosine similarity, which is also widely used by text analysts, is directly related to the \(L^2\)-norm and has the same problem.

Hellinger distance satisfies the equation \[ 1 - d^2(p, q) = \sum_{x \in X} \sqrt{p(x)q(x)}. \] When working with topic models, we’re interested in pairwise sets of Hellinger distances, either between all pairs of distributions from a single set (for example, the topic distributions for each document, as used in “discursive space” analysis; Hicks 2021) or two sets (such comparing fitted vs. true word-topic distributions as below; or word-topic distributions for two models fitted on the same corpus but different vocabularies, Malaterre and Lareau 2022). Working with two sets of distributions \(P = \{p_i | i \in I\}\) and \(Q = \{q_j | j \in J\}\), the right-hand side of the last equation is equivalent to a matrix multiplication.5 The tmfast::hellinger() function provides S3 methods for calculating Hellinger pairwise distances given a single dataframe, single matrix, or two dataframes or matrices.

First, however, we need to extract the word-topic distributions. tmfast provides a tidy() method, following the pattern of the topic model tidiers in the tidytext package. Unlike other topic models, tmfast objects can contain multiple models for different values of \(k\). So, in the second argument to tidy(), we need to specify which number of topics we want. The third argument specifies the desired set of distributions, either word-topics ('beta') or topic-documents ('gamma').

## beta: fitted varimax loadings, transformed to probability distributions
beta = tidy(fitted, k, 'beta')
beta

# A tibble: 2,734 × 3
   token topic     beta
   <chr> <chr>    <dbl>
 1 5     V02   0.0198  
 2 5     V08   0.00454 
 3 7     V01   0.00344 
 4 7     V02   0.00276 
 5 7     V06   0.000318
 6 8     V01   0.00146 
 7 8     V02   0.00522 
 8 8     V09   0.0195  
 9 11    V02   0.0114  
10 11    V04   0.00610 
# … with 2,724 more rows
…
dataf

# A tibble: 1,812,904 × 5
   gutenberg_id author                        title            term            n
          <int> <chr>                         <chr>            <chr>       <int>
 1           35 Wells, H. G. (Herbert George) The Time Machine _can_           1
 2           35 Wells, H. G. (Herbert George) The Time Machine _cancan_        1
 3           35 Wells, H. G. (Herbert George) The Time Machine _down_          1
 4           35 Wells, H. G. (Herbert George) The Time Machine _four_          1
 5           35 Wells, H. G. (Herbert George) The Time Machine _him_           1
 6           35 Wells, H. G. (Herbert George) The Time Machine _how_           1
 7           35 Wells, H. G. (Herbert George) The Time Machine _i_             1
 8           35 Wells, H. G. (Herbert George) The Time Machine _instantan…     1
 9           35 Wells, H. G. (Herbert George) The Time Machine _minus_         1
10           35 Wells, H. G. (Herbert George) The Time Machine _nil_           1
# … with 1,812,894 more rows
…
tmfast provides two information-theoretic methods for vocabulary selection. Both are based on the idea of a two-player guessing game. I pick one of the documents from the corpus, then one of the terms from the document. I tell you the term, and you have to guess which document I picked. More informative terms have greater information gain (calculated as the Kullback-Leibler divergence) relative to a “baseline” distribution based purely on the process used to pick the document. The difference between the two methods is in the document-picking process. The ndH method assumes the document was picked uniformly at random from the corpus, so that no document is more likely to be picked than any other. The ndR method assumes document probability is proportional to the document length, so that shorter documents are less likely to be picked. This method implies that terms that are distinctive of shorter documents have high information gain, since they indicate “surprising” short documents.

On either method, the most informative terms are often typographical or OCR errors, since these only occur in a single document. To balance this, we multiply the information gain (\(\Delta H\) for the uniform process, \(\Delta R\) for the length-weighted process) by the log frequency of the term across the entire corpus (\(\log n\)). So ndH is shorthand for \(\log(n) \Delta H\) while ndR is shorthand for \(\log(n) \Delta R\).

tic()
H_df = ndH(dataf, title, term, n)
R_df = ndR(dataf, title, term, n) |>
    mutate(in_vocab = rank(desc(ndR)) <= vocab_size)
toc()

17.563 sec elapsed

H_df

# A tibble: 116,449 × 5
   term           H    dH     n   ndH
   <chr>      <dbl> <dbl> <int> <dbl>
 1 kipps     0.125   7.86  1454  82.6
 2 dombey    0.386   7.60  1618  81.0
 3 boffin    0.108   7.87  1127  79.8
 4 pecksniff 0.366   7.62  1320  79.0
 5 gwendolen 0.239   7.74  1048  77.7
 6 lydgate   0.0235  7.96   867  77.7
 7 deronda   0.404   7.58  1155  77.1
 8 nicholas  0.977   7.01  1931  76.5
 9 tito      0.0835  7.90   811  76.3
10 squeers   0.253   7.73   895  75.8
# … with 116,439 more rows

R_df

# A tibble: 116,449 × 5
   term           n    dR   ndR in_vocab
   <chr>      <int> <dbl> <dbl> <lgl>   
 1 kipps       1454  7.48  78.6 TRUE    
 2 hoopdriver   469  8.50  75.4 TRUE    
 3 scrooge     1007  7.54  75.3 TRUE    
 4 lewisham     575  8.03  73.6 TRUE    
 5 benham       689  7.56  71.3 TRUE    
 6 melville     243  8.97  71.1 TRUE    
 7 bealby       458  8.04  71.0 TRUE    
 8 veronica     659  7.52  70.4 TRUE    
 9 bert         556  7.71  70.3 TRUE    
10 christie    1797  6.43  69.5 TRUE    
# … with 116,439 more rows
…
[1] 1.066448

We therefore skip renormalization and move directly to a Silge plot, showing the top 10 terms for each topic. tidytext::reorder_within() and tidytext::scale_x_reordered() are useful for constructing this plot.

beta_df = tidy(fitted_tmf, n_authors, 'beta')

top_terms = beta_df |> 
    group_by(topic) |> 
    arrange(topic, desc(beta)) |> 
    top_n(15, beta) |> 
    left_join(topic_author, by = 'topic')
top_terms

# A tibble: 150 × 4
# Groups:   topic [10]
   token     topic    beta authors
   <chr>     <chr>   <dbl> <chr>  
 1 empire    V01   0.0162  Wells  
 2 britain   V01   0.0124  Wells  
 3 peoples   V01   0.0122  Wells  
 4 russia    V01   0.0117  Wells  
 5 king      V01   0.0111  Wells  
 6 asia      V01   0.0104  Wells  
 7 socialism V01   0.00995 Wells  
 8 section   V01   0.00971 Wells  
 9 egypt     V01   0.00926 Wells  
10 ii        V01   0.00892 Wells  
# … with 140 more rows
…
