Fast topic modeling with real books • tmfast
…
## # A tibble: 4 × 7
##   gutenberg_author_id author         alias birthdate deathdate wikipedia aliases
##                 <int> <chr>          <chr>     <int>     <int> <chr>     <chr>  
## 1                  37 Dickens, Char… NA         1812      1870 https://… Boz/Di…
## 2                6323 Clark, Sereno… NA           NA        NA NA        NA     
## 3               31615 Dickens, Mamie Dick…      1838      1896 NA        Dicken…
## 4               47706 Dickens, Mary… NA         1862      1948 NA        NA

dickens_df = get_author(37)

## HG Wells is 30
filter(gutenberg_authors, str_detect(author, 'Wells'))

## # A tibble: 30 × 7
##    gutenberg_author_id author        alias birthdate deathdate wikipedia aliases
##                  <int> <chr>         <chr>     <int>     <int> <chr>     <chr>  
##  1                  30 Wells, H. G.… Well…      1866      1946 https://… Wells,…
##  2                 135 Brown, Willi… NA           NA      1884 https://… Brown,…
##  3                1060 Wells, Carol… Houg…      1862      1942 https://… Hought…
##  4                3499 Wells, Phili… NA         1868      1929 NA        Wells,…
##  5                4952 Wells, J. (J… Well…      1855      1929 https://… Wells,…
##  6                5122 Dall, Caroli… NA         1822      1912 https://… Healey…
##  7                5765 Wells-Barnet… NA         1862      1931 https://… Wells,…
##  8                6158 Hastings, We… Hast…      1879      1923 NA        Hastin…
##  9                7102 Wells, Frede… NA         1874      1929 NA        NA     
## 10               32091 Reeder, Char… NA         1884        NA NA        NA     
## # ℹ 20 more rows
…
dataf

## # A tibble: 1,812,904 × 5
##    gutenberg_id author                        title            term            n
##           <int> <chr>                         <chr>            <chr>       <int>
##  1           35 Wells, H. G. (Herbert George) The Time Machine _can_           1
##  2           35 Wells, H. G. (Herbert George) The Time Machine _cancan_        1
##  3           35 Wells, H. G. (Herbert George) The Time Machine _down_          1
##  4           35 Wells, H. G. (Herbert George) The Time Machine _four_          1
##  5           35 Wells, H. G. (Herbert George) The Time Machine _him_           1
##  6           35 Wells, H. G. (Herbert George) The Time Machine _how_           1
##  7           35 Wells, H. G. (Herbert George) The Time Machine _i_             1
##  8           35 Wells, H. G. (Herbert George) The Time Machine _instantan…     1
##  9           35 Wells, H. G. (Herbert George) The Time Machine _minus_         1
## 10           35 Wells, H. G. (Herbert George) The Time Machine _nil_           1
## # ℹ 1,812,894 more rows
…
tic()
H_df = ndH(dataf, title, term, n)
R_df = ndR(dataf, title, term, n) |>
    mutate(in_vocab = rank(desc(ndR)) <= vocab_size)
toc()

## 16.786 sec elapsed

H_df

## # A tibble: 116,449 × 5
##    term           H    dH     n   ndH
##    <chr>      <dbl> <dbl> <int> <dbl>
##  1 kipps     0.125   7.86  1454  82.6
##  2 dombey    0.386   7.60  1618  81.0
##  3 boffin    0.108   7.87  1127  79.8
##  4 pecksniff 0.366   7.62  1320  79.0
##  5 gwendolen 0.239   7.74  1048  77.7
##  6 lydgate   0.0235  7.96   867  77.7
##  7 deronda   0.404   7.58  1155  77.1
##  8 nicholas  0.977   7.01  1931  76.5
##  9 tito      0.0835  7.90   811  76.3
## 10 squeers   0.253   7.73   895  75.8
## # ℹ 116,439 more rows

R_df

## # A tibble: 116,449 × 5
##    term           n    dR   ndR in_vocab
##    <chr>      <int> <dbl> <dbl> <lgl>   
##  1 kipps       1454  7.48  78.6 TRUE    
##  2 hoopdriver   469  8.50  75.4 TRUE    
##  3 scrooge     1007  7.54  75.3 TRUE    
##  4 lewisham     575  8.03  73.6 TRUE    
##  5 benham       689  7.56  71.3 TRUE    
##  6 melville     243  8.97  71.1 TRUE    
##  7 bealby       458  8.04  71.0 TRUE    
##  8 veronica     659  7.52  70.4 TRUE    
##  9 bert         556  7.71  70.3 TRUE    
## 10 christie    1797  6.43  69.5 TRUE    
## # ℹ 116,439 more rows
…
beta_df = tidy(fitted_tmf, n_authors, 'beta')

top_terms = beta_df |> 
    group_by(topic) |> 
    arrange(topic, desc(beta)) |> 
    top_n(15, beta) |> 
    left_join(topic_author, by = 'topic')
top_terms

## # A tibble: 150 × 4
## # Groups:   topic [10]
##    token     topic    beta authors
##    <chr>     <chr>   <dbl> <chr>  
##  1 empire    V01   0.0162  Wells  
##  2 britain   V01   0.0124  Wells  
##  3 peoples   V01   0.0122  Wells  
##  4 russia    V01   0.0117  Wells  
##  5 king      V01   0.0111  Wells  
##  6 asia      V01   0.0104  Wells  
##  7 socialism V01   0.00995 Wells  
##  8 section   V01   0.00971 Wells  
##  9 egypt     V01   0.00926 Wells  
## 10 ii        V01   0.00892 Wells  
## # ℹ 140 more rows
…
